…
# Or...

# Data <- stevedata::Lipset59
```

Let’s see what these data look like.

``` r
Data
#> # A tibble: 48 × 8
#>    country    iso3c cat   wbgdp2011est wbpopest v2x_polyarchy polity2 xm_qudsest
#>    <chr>      <chr> <chr>        <dbl>    <dbl>         <dbl>   <dbl>      <dbl>
#>  1 Australia  AUS   EE: …      1.12e11   8.07e6         0.782      10       1.87
#>  2 Belgium    BEL   EE: …      7.75e10   8.29e6         0.685      10       1.85
#>  3 Canada     CAN   EE: …      1.79e11   1.33e7         0.75       10       1.52
#>  4 Denmark    DNK   EE: …      4.66e10   4.09e6         0.896      10       1.58
#>  5 Ireland    IRL   EE: …      1.77e10   2.86e6         0.801       8       1.20
#>  6 Luxembourg LUX   EE: …      4.16e 9   2.85e5         0.832      10       1.75
#>  7 Netherlan… NLD   EE: …      9.28e10   9.64e6         0.791      10       1.71
#>  8 New Zeala… NZL   EE: …      2.48e10   1.82e6         0.795      10       1.85
#>  9 Norway     NOR   EE: …      3.44e10   3.15e6         0.803      10       1.71
#> 10 Sweden     SWE   EE: …      7.87e10   6.70e6         0.767      10       1.79
#> # ℹ 38 more rows
```
…
Ideally, you can tease out what’s happening in this sequence of
commands.Any volunteers to elaborate what’s happening here?

``` r
Data %>%
  mutate(gdppc = wbgdp2011est/wbpopest) %>%
  select(country:cat, xm_qudsest, gdppc) %>%
  rename(demest = xm_qudsest) -> Data

Data
#> # A tibble: 48 × 5
#>    country     iso3c cat                    demest  gdppc
#>    <chr>       <chr> <chr>                   <dbl>  <dbl>
#>  1 Australia   AUS   EE: Stable Democracies   1.87 13919.
#>  2 Belgium     BEL   EE: Stable Democracies   1.85  9358.
#>  3 Canada      CAN   EE: Stable Democracies   1.52 13413.
#>  4 Denmark     DNK   EE: Stable Democracies   1.58 11384.
#>  5 Ireland     IRL   EE: Stable Democracies   1.20  6192.
#>  6 Luxembourg  LUX   EE: Stable Democracies   1.75 14589.
#>  7 Netherlands NLD   EE: Stable Democracies   1.71  9633.
#>  8 New Zealand NZL   EE: Stable Democracies   1.85 13602.
#>  9 Norway      NOR   EE: Stable Democracies   1.71 10916.
#> 10 Sweden      SWE   EE: Stable Democracies   1.79 11755.
#> # ℹ 38 more rows
```
…
To drive the point home, let’s create a standardized version of the
democracy and GDP per capita variable.

``` r
Data %>%
  r1sd_at(c("demest", "gdppc")) -> Data

Data
#> # A tibble: 48 × 7
#>    country     iso3c cat                    demest  gdppc s_demest s_gdppc
#>    <chr>       <chr> <chr>                   <dbl>  <dbl>    <dbl>   <dbl>
#>  1 Australia   AUS   EE: Stable Democracies   1.87 13919.    1.32   1.73  
#>  2 Belgium     BEL   EE: Stable Democracies   1.85  9358.    1.30   0.651 
#>  3 Canada      CAN   EE: Stable Democracies   1.52 13413.    0.944  1.61  
#>  4 Denmark     DNK   EE: Stable Democracies   1.58 11384.    1.01   1.13  
#>  5 Ireland     IRL   EE: Stable Democracies   1.20  6192.    0.600 -0.0948
#>  6 Luxembourg  LUX   EE: Stable Democracies   1.75 14589.    1.20   1.88  
#>  7 Netherlands NLD   EE: Stable Democracies   1.71  9633.    1.16   0.716 
#>  8 New Zealand NZL   EE: Stable Democracies   1.85 13602.    1.30   1.65  
#>  9 Norway      NOR   EE: Stable Democracies   1.71 10916.    1.15   1.02  
#> 10 Sweden      SWE   EE: Stable Democracies   1.79 11755.    1.24   1.22  
#> # ℹ 38 more rows
```
…
