…
Because we loaded these data and assigned it to an object, we can ask
for it using default methods available in R and look at what we just
loaded.

``` r
Data
#> # A tibble: 28 × 12
#>    country  iso2c iso3c  year    wp  gini fdipgdp exppgdp  reer taxrevpgdp
#>    <chr>    <chr> <chr> <dbl> <dbl> <dbl>   <dbl>   <dbl> <dbl>      <dbl>
#>  1 Austria  AT    AUT    2019     0  30.2   -2.85    55.9 102.        25.7
#>  2 Belgium  BE    BEL    2019     0  27.2   -1.97    83.0  99.8       22.6
#>  3 Bulgaria BG    BGR    2019     1  40.3    3.24    64.2 102.        20.6
#>  4 Croatia  HR    HRV    2019     0  28.9    6.47    50.5  94.1       22.0
#>  5 Cyprus   CY    CYP    2019     0  31.2  202.      75.8  87.5       23.1
#>  6 Czechia  CZ    CZE    2019     1  25.3    4.19    72.1  99.6       14.5
#>  7 Denmark  DK    DNK    2019     0  27.7   -1.10    59.0  95.6       34.9
#>  8 Estonia  EE    EST    2019     1  30.8    9.77    72.0  NA         20.8
#>  9 Finland  FI    FIN    2019     0  27.7    6.10    40.6  97.0       20.8
#> 10 France   FR    FRA    2019     0  31.2    1.96    32.9  93.9       24.6
#> # ℹ 18 more rows
#> # ℹ 2 more variables: gdp <dbl>, pop <dbl>
```
…
### `select()`

`select()` is useful for basic (but important) data management. You can
use it to grab (or omit) columns from data. For example, let’s say I
wanted to grab all the columns in the data. I could do that with the
following command.

``` r
Data %>% select(everything())  # grab everything
#> # A tibble: 28 × 12
#>    country  iso2c iso3c  year    wp  gini fdipgdp exppgdp  reer taxrevpgdp
#>    <chr>    <chr> <chr> <dbl> <dbl> <dbl>   <dbl>   <dbl> <dbl>      <dbl>
#>  1 Austria  AT    AUT    2019     0  30.2   -2.85    55.9 102.        25.7
#>  2 Belgium  BE    BEL    2019     0  27.2   -1.97    83.0  99.8       22.6
#>  3 Bulgaria BG    BGR    2019     1  40.3    3.24    64.2 102.        20.6
#>  4 Croatia  HR    HRV    2019     0  28.9    6.47    50.5  94.1       22.0
#>  5 Cyprus   CY    CYP    2019     0  31.2  202.      75.8  87.5       23.1
#>  6 Czechia  CZ    CZE    2019     1  25.3    4.19    72.1  99.6       14.5
#>  7 Denmark  DK    DNK    2019     0  27.7   -1.10    59.0  95.6       34.9
#>  8 Estonia  EE    EST    2019     1  30.8    9.77    72.0  NA         20.8
#>  9 Finland  FI    FIN    2019     0  27.7    6.10    40.6  97.0       20.8
#> 10 France   FR    FRA    2019     0  31.2    1.96    32.9  93.9       24.6
#> # ℹ 18 more rows
#> # ℹ 2 more variables: gdp <dbl>, pop <dbl>
```

Do note this is kind of a redundant command. You could just as well spit
the entire data into the console and it would’ve done the same thing.
Still, here’s if I wanted everything except the two-character ISO code.
I’m more of a three-character guy myself.

``` r
Data %>% select(-iso2c) # grab everything, but drop the public variable.
#> # A tibble: 28 × 11
#>    country  iso3c  year    wp  gini fdipgdp exppgdp  reer taxrevpgdp     gdp
#>    <chr>    <chr> <dbl> <dbl> <dbl>   <dbl>   <dbl> <dbl>      <dbl>   <dbl>
#>  1 Austria  AUT    2019     0  30.2   -2.85    55.9 102.        25.7 4.13e11
#>  2 Belgium  BEL    2019     0  27.2   -1.97    83.0  99.8       22.6 4.94e11
#>  3 Bulgaria BGR    2019     1  40.3    3.24    64.2 102.        20.6 5.72e10
#>  4 Croatia  HRV    2019     0  28.9    6.47    50.5  94.1       22.0 5.78e10
#>  5 Cyprus   CYP    2019     0  31.2  202.      75.8  87.5       23.1 2.52e10
#>  6 Czechia  CZE    2019     1  25.3    4.19    72.1  99.6       14.5 2.17e11
#>  7 Denmark  DNK    2019     0  27.7   -1.10    59.0  95.6       34.9 3.32e11
#>  8 Estonia  EST    2019     1  30.8    9.77    72.0  NA         20.8 2.73e10
#>  9 Finland  FIN    2019     0  27.7    6.10    40.6  97.0       20.8 2.53e11
#> 10 France   FRA    2019     0  31.2    1.96    32.9  93.9       24.6 2.61e12
#> # ℹ 18 more rows
#> # ℹ 1 more variable: pop <dbl>
```

Here’s a more typical case. Assume you’re working with a large data
object and you just want a handful of things. In this case, we have
these variables, but we want just the identifier variables and the
`gini` column for income inequality. We want to drop everything else.
Here’s how we’d do that in the `select()` function, again with some
assistance from the pipe.

``` r
Data %>% select(country:gini) # grab country, gini, and everything in between it.
#> # A tibble: 28 × 6
#>    country  iso2c iso3c  year    wp  gini
#>    <chr>    <chr> <chr> <dbl> <dbl> <dbl>
#>  1 Austria  AT    AUT    2019     0  30.2
#>  2 Belgium  BE    BEL    2019     0  27.2
#>  3 Bulgaria BG    BGR    2019     1  40.3
#>  4 Croatia  HR    HRV    2019     0  28.9
#>  5 Cyprus   CY    CYP    2019     0  31.2
#>  6 Czechia  CZ    CZE    2019     1  25.3
#>  7 Denmark  DK    DNK    2019     0  27.7
#>  8 Estonia  EE    EST    2019     1  30.8
#>  9 Finland  FI    FIN    2019     0  27.7
#> 10 France   FR    FRA    2019     0  31.2
#> # ℹ 18 more rows
```
…
`mutate()` is probably the most important `{tidyverse}` function for
data management/recoding. It will allow you to create new columns while
retaining the original dimensions of the data. Consider it the sister
function to `summarize()`. But, where `summarize()` discards, `mutate()`
retains.

Let’s do something simple with `mutate()`. For example, we can create a
new variable for GDP per capita based on the information we have. We
have GDP. We have population size. They are both in the same units. We
just need to divide one over the other. Watch how we’d do that here.

``` r
Data %>%
  mutate(gdppc = gdp/pop)
#> # A tibble: 28 × 13
#>    country  iso2c iso3c  year    wp  gini fdipgdp exppgdp  reer taxrevpgdp
#>    <chr>    <chr> <chr> <dbl> <dbl> <dbl>   <dbl>   <dbl> <dbl>      <dbl>
#>  1 Austria  AT    AUT    2019     0  30.2   -2.85    55.9 102.        25.7
#>  2 Belgium  BE    BEL    2019     0  27.2   -1.97    83.0  99.8       22.6
#>  3 Bulgaria BG    BGR    2019     1  40.3    3.24    64.2 102.        20.6
#>  4 Croatia  HR    HRV    2019     0  28.9    6.47    50.5  94.1       22.0
#>  5 Cyprus   CY    CYP    2019     0  31.2  202.      75.8  87.5       23.1
#>  6 Czechia  CZ    CZE    2019     1  25.3    4.19    72.1  99.6       14.5
#>  7 Denmark  DK    DNK    2019     0  27.7   -1.10    59.0  95.6       34.9
#>  8 Estonia  EE    EST    2019     1  30.8    9.77    72.0  NA         20.8
#>  9 Finland  FI    FIN    2019     0  27.7    6.10    40.6  97.0       20.8
#> 10 France   FR    FRA    2019     0  31.2    1.96    32.9  93.9       24.6
#> # ℹ 18 more rows
#> # ℹ 3 more variables: gdp <dbl>, pop <dbl>, gdppc <dbl>
```
…
We can save/assign our work as follows.

``` r
Data %>%
  mutate(gdppc = gdp/pop,
         southeurope = ifelse(iso2c %in% c("GR", "IT", "PT", "ES"), 1, 0)) -> Data

Data
#> # A tibble: 28 × 14
#>    country  iso2c iso3c  year    wp  gini fdipgdp exppgdp  reer taxrevpgdp
#>    <chr>    <chr> <chr> <dbl> <dbl> <dbl>   <dbl>   <dbl> <dbl>      <dbl>
#>  1 Austria  AT    AUT    2019     0  30.2   -2.85    55.9 102.        25.7
#>  2 Belgium  BE    BEL    2019     0  27.2   -1.97    83.0  99.8       22.6
#>  3 Bulgaria BG    BGR    2019     1  40.3    3.24    64.2 102.        20.6
#>  4 Croatia  HR    HRV    2019     0  28.9    6.47    50.5  94.1       22.0
#>  5 Cyprus   CY    CYP    2019     0  31.2  202.      75.8  87.5       23.1
#>  6 Czechia  CZ    CZE    2019     1  25.3    4.19    72.1  99.6       14.5
#>  7 Denmark  DK    DNK    2019     0  27.7   -1.10    59.0  95.6       34.9
#>  8 Estonia  EE    EST    2019     1  30.8    9.77    72.0  NA         20.8
#>  9 Finland  FI    FIN    2019     0  27.7    6.10    40.6  97.0       20.8
#> 10 France   FR    FRA    2019     0  31.2    1.96    32.9  93.9       24.6
#> # ℹ 18 more rows
#> # ℹ 4 more variables: gdp <dbl>, pop <dbl>, gdppc <dbl>, southeurope <dbl>
```
…
