…
## The Basics of `{ggplot2}`

Let’s start with the basics. Every foundation to a plot you make will
look like this. First, let’s create some fake data.

``` r
tibble(x = rnorm(100),
       y = x+rnorm(100)) -> Example

Example
#> # A tibble: 100 × 2
#>           x       y
#>       <dbl>   <dbl>
#>  1  0.551    0.0992
#>  2  0.395    1.62  
#>  3  0.571   -0.0244
#>  4 -1.56    -2.11  
#>  5 -0.447   -0.870 
#>  6  0.520    0.433 
#>  7 -0.00528 -1.21  
#>  8 -0.929   -3.02  
#>  9 -1.19    -1.84  
#> 10 -0.267   -1.11  
#> # ℹ 90 more rows
```
…
From here, though, everything else will be a simple matter of showing
you how to make different kinds of plots. Let’s start with what I think
to be the most basic: the bar chart. Here, the data are discrete and we
just want a rough estimate of count. Let’s use the `steves_clothes` data
frame in `{stevedata}`. This is a simple data set on the country of
origin for my dress apparel that I used for teaching undergrads in the
United States about the globalization of the garment industry. I can
show you that presentation if you like, but here let’s just note the
data set.

``` r
steves_clothes
#> # A tibble: 86 × 4
#>    type        brand      color       origin    
#>    <chr>       <chr>      <chr>       <chr>     
#>  1 dress shirt Stafford   white       Ethiopia  
#>  2 dress shirt Stafford   white       Indonesia 
#>  3 dress shirt Arrow      white plaid Bangladesh
#>  4 dress shirt Van Heusen white plaid Vietnam   
#>  5 dress shirt Uniqlo     white plaid China     
#>  6 dress shirt Van Heusen white plaid Indonesia 
#>  7 dress shirt Saddlebred white plaid Nicaragua 
#>  8 dress shirt Stafford   white plaid Vietnam   
#>  9 dress shirt Saddlebred white plaid Nicaragua 
#> 10 dress shirt Van Heusen white plaid Indonesia 
#> # ℹ 76 more rows
…
## Histograms and density plots

Histograms and density plots are communicating the same basic thing: the
shape of the data. The density plot is a smoothed histogram, meaning
it’s less sensitive to issues of binwidth. However, communicating
“density” on the y-axis isn’t as intuitive to the reader.

Let’s use the gss_wages data, which comes in {stevedata}. You can look
at the data here.

``` r
gss_wages
#> # A tibble: 61,697 × 11
#>     year realrinc   age occ10 occrecode   prestg10 childs wrkstat gender educcat
#>    <dbl>    <dbl> <dbl> <dbl> <chr>          <dbl>  <dbl> <chr>   <chr>  <chr>  
#>  1  1974     4935    21  5620 Office and…       25      0 School  Male   High S…
#>  2  1974    43178    41  2040 Profession…       66      3 Full-T… Male   Bachel…
#>  3  1974       NA    83    NA <NA>              NA      2 Housek… Female Less T…
#>  4  1974       NA    69    NA <NA>              NA      2 Housek… Female Less T…
#>  5  1974    18505    58  5820 Office and…       37      0 Full-T… Female High S…
#>  6  1974    22206    30   910 Business/F…       45      0 School  Male   Bachel…
#>  7  1974    55515    48   230 Business/F…       59      2 Full-T… Male   Gradua…
#>  8  1974       NA    67  6355 Constructi…       49      1 Retired Male   Less T…
#>  9  1974       NA    51  4720 Sales             28      2 Housek… Female High S…
#> 10  1974     4935    54  3940 Service           38      2 Full-T… Female Less T…
#> # ℹ 61,687 more rows
#> # ℹ 1 more variable: maritalcat <chr>
…
Now, here’s the fun part that you should also be mindful to do. Remember
the `Data` object we created?

``` r
Data
#> # A tibble: 14,292 × 11
#>     year realrinc   age occ10 occrecode   prestg10 childs wrkstat gender educcat
#>    <dbl>    <dbl> <dbl> <dbl> <chr>          <dbl>  <dbl> <chr>   <chr>  <chr>  
#>  1  2000     5985    48  5700 Office and…       47      2 Full-T… Female High S…
#>  2  2000       NA    39  3250 Profession…       68      1 Full-T… Female High S…
#>  3  2000    18287    36  4965 Sales             31      0 Full-T… Male   High S…
#>  4  2000     4987    44    40 Business/F…       57      2 Full-T… Female Junior…
#>  5  2000    36575    44  5000 Office and…       46      1 Full-T… Male   Gradua…
#>  6  2000    44887    47   800 Business/F…       60      3 Full-T… Male   Bachel…
#>  7  2000    44887    53   230 Business/F…       59      1 Full-T… Female Gradua…
#>  8  2000    66500    52  1006 Profession…       65      1 Full-T… Male   Gradua…
#>  9  2000    18287    52  4220 Service           24      1 Full-T… Male   High S…
#> 10  2000    36575    51   800 Business/F…       60      0 Full-T… Male   Bachel…
#> # ℹ 14,282 more rows
#> # ℹ 1 more variable: maritalcat <chr>
```
…
