…
``` r
colnames(Data) <- c("impdem", "justdiv", "age", "sex", "inc", "pray", "educ")
```

Surveys typically make men to be 1 and women to be 2, but I’ve always
hated this practice. This makes women to be 1 and men to be 0.

``` r
Data %>% mutate(sex = ifelse(sex == 2, 1, 0)) -> Data

Data
#> # A tibble: 1,206 × 7
#>    impdem justdiv   age   sex   inc  pray  educ
#>     <dbl>   <dbl> <dbl> <dbl> <dbl> <dbl> <dbl>
#>  1     10      10    38     1     5     8    31
#>  2     10       4    51     1     5     3    29
#>  3      8      10    70     0     7     3    23
#>  4      6       1    21     1     6     2     6
#>  5     10      10    65     1     5     6    21
#>  6     10      10    51     1     5     2    32
#>  7     10      10    48     1     5     8    38
#>  8     10      10    81     0     7     8    27
#>  9      8      10    19     0     4     8    18
#> 10     10      10    61     0     8     8    18
#> # ℹ 1,196 more rows
```
…
