…
# Alternatively, for convenience
Data <- stevedata::EBJ
# Let's look at the contents.

Data
#> # A tibble: 95 × 12
#>    testnewid_lag ccode    id     fdi   pcj econ_devel    econ_size econ_growth
#>            <dbl> <dbl> <dbl>   <dbl> <dbl>      <dbl>        <dbl>       <dbl>
#>  1       2880000    41    71   -9.80     0      1182.   8407079981      -2.13 
#>  2       2882880    41    71    6.60     0      1089.   8055393763     -14.9  
#>  3       2850000    52   154  510.       0      7743.   9542938026       1.94 
#>  4       3080000    70   102 -341.       0      6895. 628418000000      -7.86 
#>  5       3083080    70   102 6461.       0      7780. 730752000000       5.23 
#>  6       1361360    90    67  431.       1      3062.  31339424077       0.628
#>  7       2200000    92   141   -7        0      2093.   9756946007       2.28 
#>  8       2202200    92   141  264.       1      3045.  16729584566       5.89 
#>  9       2400000    93   116    2.70     0      1302.   4239808540       1.64 
#> 10       2402400    93   116  337.       1      1350.   5588425124      -2.31 
#> # ℹ 85 more rows
#> # ℹ 4 more variables: kaopen <dbl>, xr <dbl>, lf <dbl>, lifeexp <dbl>
```
…
# Alternatively, in case we get stuck in a loop in lab...
broom::augment(M2) -> Data
```

Let’s get an idea of what’s happening here before going any further.

``` r
Data %>%
  select(fdi, .fitted, .resid) %>%
  mutate(y_is_fitted_plus_resid = .fitted + .resid,
         resid_is_y_minus_fitted = fdi - .fitted)
#> # A tibble: 95 × 5
#>        fdi .fitted .resid y_is_fitted_plus_resid resid_is_y_minus_fitted
#>      <dbl>   <dbl>  <dbl>                  <dbl>                   <dbl>
#>  1   -9.80   -129.   119.                  -9.80                    119.
#>  2    6.60   -124.   131.                   6.60                    131.
#>  3  510.     -430.   940.                 510.                      940.
#>  4 -341.     6451. -6792.                -341.                    -6792.
#>  5 6461.     7563. -1102.                6461.                    -1102.
#>  6  431.     1894. -1463.                 431.                    -1463.
#>  7   -7      -218.   211.                  -7                       211.
#>  8  264.     1505. -1241.                 264.                    -1241.
#>  9    2.70   -364.   367.                   2.70                    367.
#> 10  337.    -2958.  3295.                 337.                     3295.
#> # ℹ 85 more rows
```
…
